DIAPP 2026 · Análisis de Datos – Clase 5: Inferencia Estadística
…
Paso 1: specify()

Especificamos cuál es la variable y qué valor es el “éxito”:

muestra |>
  specify(response = p_originario, success = "si")

Response: p_originario (factor)
# A tibble: 300 × 1
   p_originario
   <fct>       
 1 no          
 2 no          
 3 si          
 4 no          
 5 si          
 6 si          
 7 no          
 8 no          
 9 no          
10 no          
# ℹ 290 more rows
…
